[
    "// level up messages",
    "Level Up:Level\\d+",
    "// character creation multiple choice test",
    "Question [1-9]:Question",
    "Question [1-9]:AnswerOne",
    "Question [1-9]:AnswerTwo",
    "Question [1-9]:AnswerThree",
    "Question [1-9]:Sound"
]